%YAML 1.1
%TAG !u! tag:unity3d.com,2011:
--- !u!1 &170000
GameObject:
  m_ObjectHideFlags: 0
  m_PrefabParentObject: {fileID: 0}
  m_PrefabInternal: {fileID: 100100000}
  serializedVersion: 4
  m_Component:
  - 4: {fileID: 450246}
  - 114: {fileID: 11421648}
  m_Layer: 0
  m_Name: StockPotato
  m_TagString: Untagged
  m_Icon: {fileID: 0}
  m_NavMeshLayer: 0
  m_StaticEditorFlags: 0
  m_IsActive: 1
--- !u!4 &450246
Transform:
  m_ObjectHideFlags: 1
  m_PrefabParentObject: {fileID: 0}
  m_PrefabInternal: {fileID: 100100000}
  m_GameObject: {fileID: 170000}
  m_LocalRotation: {x: 0, y: 0, z: 0, w: 1}
  m_LocalPosition: {x: .185899109, y: -.692730546, z: 0}
  m_LocalScale: {x: 1, y: 1, z: 1}
  m_Children: []
  m_Father: {fileID: 0}
  m_RootOrder: 0
--- !u!114 &11421648
MonoBehaviour:
  m_ObjectHideFlags: 1
  m_PrefabParentObject: {fileID: 0}
  m_PrefabInternal: {fileID: 100100000}
  m_GameObject: {fileID: 170000}
  m_Enabled: 1
  m_EditorHideFlags: 0
  m_Script: {fileID: 11500000, guid: 2bdcc3c2ecdf32a449ef956b7f31f940, type: 3}
  m_Name: 
  m_EditorClassIdentifier: 
  FarmItem: {fileID: 11430642, guid: f192beb5104460e409ee2c1f6dddd0fa, type: 2}
--- !u!1001 &100100000
Prefab:
  m_ObjectHideFlags: 1
  serializedVersion: 2
  m_Modification:
    m_TransformParent: {fileID: 0}
    m_Modifications:
    - target: {fileID: 0}
      propertyPath: farmItem
      value: 
      objectReference: {fileID: 11430642, guid: f192beb5104460e409ee2c1f6dddd0fa,
        type: 2}
    - target: {fileID: 0}
      propertyPath: FarmItem
      value: 
      objectReference: {fileID: 11430642, guid: f192beb5104460e409ee2c1f6dddd0fa,
        type: 2}
    m_RemovedComponents: []
  m_ParentPrefab: {fileID: 0}
  m_RootGameObject: {fileID: 170000}
  m_IsPrefabParent: 1
